2006.04.08 18:00 B C:\wwwroot\_lib\_classes\class.members.php --> 69.30.47.142 /users/EDIA000000/tmp class.members.php
2006.04.10 20:51 B C:\wwwroot\_lib\_classes\class.catmgr.php --> 69.30.47.142 /users/EDIA000000/tmp class.catmgr.php
2006.04.17 18:24 B C:\wwwroot\_lib\_classes\class.standards.php --> 69.30.47.142 /users/EDIA000000/tmp class.standards.php
2006.04.26 21:28 B C:\wwwroot\_lib\_classes\class.standards.php --> 69.30.47.142 /users/EDIA000000/tmp class.standards.php
2006.05.02 20:27 B C:\wwwroot\_lib\_classes\class.standards.php --> 69.30.47.142 /users/EDIA000000/tmp class.standards.php
2006.05.02 20:27 B C:\wwwroot\_lib\_classes\class.members.php --> 69.30.47.142 /users/EDIA000000/tmp class.members.php
2006.05.05 07:09 B C:\wwwroot\_lib\_classes\class.standards.php --> 69.30.47.142 /users/EDIA000000/tmp class.standards.php
2006.05.17 22:04 B C:\wwwroot\_lib\_classes\class.standards.php --> 69.30.47.142 /users/EDIA000000/tmp class.standards.php
2006.06.19 18:59 B C:\wwwroot\_lib\_classes\class.standards.php --> 69.30.47.142 /users/EDIA000000/tmp class.standards.php
2006.07.22 21:51 B C:\wwwroot\_lib\_classes\class.mailbox.php --> 69.30.47.142 /users/EDIA000000/tmp class.mailbox.php
2006.07.31 21:12 B C:\wwwroot\_lib\_classes\class.member_invoice.php --> 69.30.47.142 /users/EDIA000000/tmp class.member_invoice.php
2006.07.31 21:12 B C:\wwwroot\_lib\_classes\class.members.php --> 69.30.47.142 /users/EDIA000000/tmp class.members.php
2006.08.06 18:13 B C:\wwwroot\_lib\_classes\class.accounts.php --> 69.30.47.142 /users/EDIA000000/tmp/_classes class.accounts.php
2006.08.06 18:13 B C:\wwwroot\_lib\_classes\class.admin.php --> 69.30.47.142 /users/EDIA000000/tmp/_classes class.admin.php
2006.08.06 18:13 B C:\wwwroot\_lib\_classes\class.admin.php.bak --> 69.30.47.142 /users/EDIA000000/tmp/_classes class.admin.php.bak
2006.08.06 18:13 B C:\wwwroot\_lib\_classes\class.ads.php --> 69.30.47.142 /users/EDIA000000/tmp/_classes class.ads.php
2006.08.06 18:13 B C:\wwwroot\_lib\_classes\class.catmgr.php --> 69.30.47.142 /users/EDIA000000/tmp/_classes class.catmgr.php
2006.08.06 18:13 B C:\wwwroot\_lib\_classes\class.catmgr.php.bak --> 69.30.47.142 /users/EDIA000000/tmp/_classes class.catmgr.php.bak
2006.08.06 18:13 B C:\wwwroot\_lib\_classes\class.companies.php --> 69.30.47.142 /users/EDIA000000/tmp/_classes class.companies.php
2006.08.06 18:13 B C:\wwwroot\_lib\_classes\class.companies.php.bak --> 69.30.47.142 /users/EDIA000000/tmp/_classes class.companies.php.bak
2006.08.06 18:13 B C:\wwwroot\_lib\_classes\class.draft.php --> 69.30.47.142 /users/EDIA000000/tmp/_classes class.draft.php
2006.08.06 18:13 B C:\wwwroot\_lib\_classes\class.edia.php --> 69.30.47.142 /users/EDIA000000/tmp/_classes class.edia.php
2006.08.06 18:13 B C:\wwwroot\_lib\_classes\class.forumhelp.php --> 69.30.47.142 /users/EDIA000000/tmp/_classes class.forumhelp.php
2006.08.06 18:13 B C:\wwwroot\_lib\_classes\class.forumreply.php --> 69.30.47.142 /users/EDIA000000/tmp/_classes class.forumreply.php
2006.08.06 18:13 B C:\wwwroot\_lib\_classes\class.forumtopic.php --> 69.30.47.142 /users/EDIA000000/tmp/_classes class.forumtopic.php
2006.08.06 18:13 B C:\wwwroot\_lib\_classes\class.inbox.php --> 69.30.47.142 /users/EDIA000000/tmp/_classes class.inbox.php
2006.08.06 18:13 B C:\wwwroot\_lib\_classes\class.mailbox.php --> 69.30.47.142 /users/EDIA000000/tmp/_classes class.mailbox.php
2006.08.06 18:13 B C:\wwwroot\_lib\_classes\class.mailbox.php.bak --> 69.30.47.142 /users/EDIA000000/tmp/_classes class.mailbox.php.bak
2006.08.06 18:13 B C:\wwwroot\_lib\_classes\class.member_invoice.php --> 69.30.47.142 /users/EDIA000000/tmp/_classes class.member_invoice.php
2006.08.06 18:13 B C:\wwwroot\_lib\_classes\class.member_invoice.php.bak --> 69.30.47.142 /users/EDIA000000/tmp/_classes class.member_invoice.php.bak
2006.08.06 18:14 B C:\wwwroot\_lib\_classes\class.members.php --> 69.30.47.142 /users/EDIA000000/tmp/_classes class.members.php
2006.08.06 18:14 B C:\wwwroot\_lib\_classes\class.members.php.bak --> 69.30.47.142 /users/EDIA000000/tmp/_classes class.members.php.bak
2006.08.06 18:14 B C:\wwwroot\_lib\_classes\class.members.php.old --> 69.30.47.142 /users/EDIA000000/tmp/_classes class.members.php.old
2006.08.06 18:14 B C:\wwwroot\_lib\_classes\class.mycat.php --> 69.30.47.142 /users/EDIA000000/tmp/_classes class.mycat.php
2006.08.06 18:14 B C:\wwwroot\_lib\_classes\class.news.php --> 69.30.47.142 /users/EDIA000000/tmp/_classes class.news.php
2006.08.06 18:14 B C:\wwwroot\_lib\_classes\class.newsletter.php --> 69.30.47.142 /users/EDIA000000/tmp/_classes class.newsletter.php
2006.08.06 18:14 B C:\wwwroot\_lib\_classes\class.orders.php --> 69.30.47.142 /users/EDIA000000/tmp/_classes class.orders.php
2006.08.06 18:14 B C:\wwwroot\_lib\_classes\class.partners.php --> 69.30.47.142 /users/EDIA000000/tmp/_classes class.partners.php
2006.08.06 18:14 B C:\wwwroot\_lib\_classes\class.polls.php --> 69.30.47.142 /users/EDIA000000/tmp/_classes class.polls.php
2006.08.06 18:14 B C:\wwwroot\_lib\_classes\class.products.php --> 69.30.47.142 /users/EDIA000000/tmp/_classes class.products.php
2006.08.06 18:14 B C:\wwwroot\_lib\_classes\class.reports.php --> 69.30.47.142 /users/EDIA000000/tmp/_classes class.reports.php
2006.08.06 18:14 B C:\wwwroot\_lib\_classes\class.rssfeed.php --> 69.30.47.142 /users/EDIA000000/tmp/_classes class.rssfeed.php
2006.08.06 18:14 B C:\wwwroot\_lib\_classes\class.session.php --> 69.30.47.142 /users/EDIA000000/tmp/_classes class.session.php
2006.08.06 18:14 B C:\wwwroot\_lib\_classes\class.shopping_cart.php --> 69.30.47.142 /users/EDIA000000/tmp/_classes class.shopping_cart.php
2006.08.06 18:14 B C:\wwwroot\_lib\_classes\class.standards.php --> 69.30.47.142 /users/EDIA000000/tmp/_classes class.standards.php
2006.08.06 18:14 B C:\wwwroot\_lib\_classes\class.standards.php.bak --> 69.30.47.142 /users/EDIA000000/tmp/_classes class.standards.php.bak
2006.08.06 18:14 B C:\wwwroot\_lib\_classes\class.trans.php --> 69.30.47.142 /users/EDIA000000/tmp/_classes class.trans.php
2006.08.06 18:14 B C:\wwwroot\_lib\_classes\class.trans.php.bak --> 69.30.47.142 /users/EDIA000000/tmp/_classes class.trans.php.bak
2006.08.06 18:14 B C:\wwwroot\_lib\_classes\class.users.php --> 69.30.47.142 /users/EDIA000000/tmp/_classes class.users.php
2006.08.06 18:14 B C:\wwwroot\_lib\_classes\class.users.php.bak --> 69.30.47.142 /users/EDIA000000/tmp/_classes class.users.php.bak
2006.08.06 18:14 B C:\wwwroot\_lib\_classes\WesiteUpdate20060307.PRJ --> 69.30.47.142 /users/EDIA000000/tmp/_classes WesiteUpdate20060307.PRJ
